sample	quantity
+ control blood	9.56E-02
+ control denim	2.46E-01
+ control denim	2.33E-01
+ control denim	2.46E-01
+ control denim	2.14E-01
+ control denim	2.19E-01
+ control denim	3.79E-02
+ control denim	3.35E-02
+ control denim	5.37E-02
+ control denim	3.10E-02
+ control denim	3.01E-02
- control denim	0.00E+00
- control denim	0.00E+00
- control denim	0.00E+00
- control denim	0.00E+00
- control denim	7.43E-05
- control denim	0.00E+00
- control denim	0.00E+00
- control denim	0.00E+00
passive	0.00E+00
passive	0.00E+00
passive	0.00E+00
passive	4.09E-05
passive	1.10E-04
passive	0.00E+00
passive	1.99E-05
passive	2.37E-05
passive	5.02E-05
passive	0.00E+00
passive	2.12E-04
passive	1.68E-04
passive	5.14E-04
pressure	1.97E-05
pressure	2.30E-05
pressure	1.75E-04
pressure	0.00E+00
pressure	1.21E-04
pressure	4.84E-05
pressure	1.26E-04
pressure	1.69E-05
pressure	2.57E-05
pressure	1.29E-04
friction	1.22E-04
friction	8.95E-05
friction	1.26E-04
friction	8.53E-04
friction	1.58E-04
friction	1.04E-04
friction	1.30E-04
friction	1.71E-04
friction	1.31E-03
friction	4.35E-04